com\apiDemo\model\AccountListWrapper.class
com\apiDemo\repository\AccountRepository.class
com\apiDemo\service\BanksService.class
com\apiDemo\model\Account.class
com\apiDemo\controller\BanksSessionController.class
com\apiDemo\controller\BanksController.class
com\apiDemo\util\UtilConstants.class
com\apiDemo\ApiApplication.class
